11 Loops+Iter P1 – COMP/STAT212 Portfolio
…
Iteration across data frame columns

Often we will have to perform the same data wrangling on many variables (e.g., rounding numbers)

Code
diamonds |>
    mutate(
        carat = round(carat, 1),
        x = round(x, 1),
        y = round(y, 1),
        z = round(z, 1)
    )

# A tibble: 53,940 × 10
   carat cut       color clarity depth table price     x     y     z
   <dbl> <ord>     <ord> <ord>   <dbl> <dbl> <int> <dbl> <dbl> <dbl>
 1   0.2 Ideal     E     SI2      61.5    55   326   4     4     2.4
 2   0.2 Premium   E     SI1      59.8    61   326   3.9   3.8   2.3
 3   0.2 Good      E     VS1      56.9    65   327   4     4.1   2.3
 4   0.3 Premium   I     VS2      62.4    58   334   4.2   4.2   2.6
 5   0.3 Good      J     SI2      63.3    58   335   4.3   4.3   2.8
 6   0.2 Very Good J     VVS2     62.8    57   336   3.9   4     2.5
 7   0.2 Very Good I     VVS1     62.3    57   336   4     4     2.5
 8   0.3 Very Good H     SI1      61.9    55   337   4.1   4.1   2.5
 9   0.2 Fair      E     VS2      65.1    61   337   3.9   3.8   2.5
10   0.2 Very Good H     VS1      59.4    61   338   4     4     2.4
# ℹ 53,930 more rows

dplyr provides the across() function for performing these repeated function calls:

Code
# Option 1: Create our own named function
round_to_one <- function(x) {
    round(x, digits = 1)
}
diamonds |> 
    mutate(across(.cols = c(carat, x, y, z), .fns = round_to_one))

# A tibble: 53,940 × 10
   carat cut       color clarity depth table price     x     y     z
   <dbl> <ord>     <ord> <ord>   <dbl> <dbl> <int> <dbl> <dbl> <dbl>
 1   0.2 Ideal     E     SI2      61.5    55   326   4     4     2.4
 2   0.2 Premium   E     SI1      59.8    61   326   3.9   3.8   2.3
 3   0.2 Good      E     VS1      56.9    65   327   4     4.1   2.3
 4   0.3 Premium   I     VS2      62.4    58   334   4.2   4.2   2.6
 5   0.3 Good      J     SI2      63.3    58   335   4.3   4.3   2.8
 6   0.2 Very Good J     VVS2     62.8    57   336   3.9   4     2.5
 7   0.2 Very Good I     VVS1     62.3    57   336   4     4     2.5
 8   0.3 Very Good H     SI1      61.9    55   337   4.1   4.1   2.5
 9   0.2 Fair      E     VS2      65.1    61   337   3.9   3.8   2.5
10   0.2 Very Good H     VS1      59.4    61   338   4     4     2.4
# ℹ 53,930 more rows

Code
# Option 2: Use an "anonymous" or "lambda" function that isn't named/saved
diamonds |> 
    mutate(across(.cols = c(carat, x, y, z), .fns = function(x) {round(x, digits = 1)} ))

# A tibble: 53,940 × 10
   carat cut       color clarity depth table price     x     y     z
   <dbl> <ord>     <ord> <ord>   <dbl> <dbl> <int> <dbl> <dbl> <dbl>
 1   0.2 Ideal     E     SI2      61.5    55   326   4     4     2.4
 2   0.2 Premium   E     SI1      59.8    61   326   3.9   3.8   2.3
 3   0.2 Good      E     VS1      56.9    65   327   4     4.1   2.3
 4   0.3 Premium   I     VS2      62.4    58   334   4.2   4.2   2.6
 5   0.3 Good      J     SI2      63.3    58   335   4.3   4.3   2.8
 6   0.2 Very Good J     VVS2     62.8    57   336   3.9   4     2.5
 7   0.2 Very Good I     VVS1     62.3    57   336   4     4     2.5
 8   0.3 Very Good H     SI1      61.9    55   337   4.1   4.1   2.5
 9   0.2 Fair      E     VS2      65.1    61   337   3.9   3.8   2.5
10   0.2 Very Good H     VS1      59.4    61   338   4     4     2.4
# ℹ 53,930 more rows
…
Exercises

Using the diamonds dataset:

Transform the x, y, and z columns so that the units of millimeters are displayed (e.g., “4.0 mm”).

Code
diamonds |>
  dplyr::mutate(
    dplyr::across(.cols = c(x, y, z), .fns = ~ str_c(.x, " mm"))
  )

# A tibble: 53,940 × 10
   carat cut       color clarity depth table price x       y       z      
   <dbl> <ord>     <ord> <ord>   <dbl> <dbl> <int> <chr>   <chr>   <chr>  
 1  0.23 Ideal     E     SI2      61.5    55   326 3.95 mm 3.98 mm 2.43 mm
 2  0.21 Premium   E     SI1      59.8    61   326 3.89 mm 3.84 mm 2.31 mm
 3  0.23 Good      E     VS1      56.9    65   327 4.05 mm 4.07 mm 2.31 mm
 4  0.29 Premium   I     VS2      62.4    58   334 4.2 mm  4.23 mm 2.63 mm
 5  0.31 Good      J     SI2      63.3    58   335 4.34 mm 4.35 mm 2.75 mm
 6  0.24 Very Good J     VVS2     62.8    57   336 3.94 mm 3.96 mm 2.48 mm
 7  0.24 Very Good I     VVS1     62.3    57   336 3.95 mm 3.98 mm 2.47 mm
 8  0.26 Very Good H     SI1      61.9    55   337 4.07 mm 4.11 mm 2.53 mm
 9  0.22 Fair      E     VS2      65.1    61   337 3.87 mm 3.78 mm 2.49 mm
10  0.23 Very Good H     VS1      59.4    61   338 4 mm    4.05 mm 2.39 mm
# ℹ 53,930 more rows

Convert all numeric columns into character columns.

Hint: type is. and hit Tab in the Console. Scroll through the function options. Do the same with as.

Code
diamonds |>
  dplyr::mutate(
    dplyr::across(.cols = dplyr::where(is.numeric), .fns = as.character)
  )

# A tibble: 53,940 × 10
   carat cut       color clarity depth table price x     y     z    
   <chr> <ord>     <ord> <ord>   <chr> <chr> <chr> <chr> <chr> <chr>
 1 0.23  Ideal     E     SI2     61.5  55    326   3.95  3.98  2.43 
 2 0.21  Premium   E     SI1     59.8  61    326   3.89  3.84  2.31 
 3 0.23  Good      E     VS1     56.9  65    327   4.05  4.07  2.31 
 4 0.29  Premium   I     VS2     62.4  58    334   4.2   4.23  2.63 
 5 0.31  Good      J     SI2     63.3  58    335   4.34  4.35  2.75 
 6 0.24  Very Good J     VVS2    62.8  57    336   3.94  3.96  2.48 
 7 0.24  Very Good I     VVS1    62.3  57    336   3.95  3.98  2.47 
 8 0.26  Very Good H     SI1     61.9  55    337   4.07  4.11  2.53 
 9 0.22  Fair      E     VS2     65.1  61    337   3.87  3.78  2.49 
10 0.23  Very Good H     VS1     59.4  61    338   4     4.05  2.39 
# ℹ 53,930 more rows
…
Write a function called remove_outliers that removes outliers in a dataset. The user should be able to supply the dataset (data), the variable to remove outliers in (what_var), and a threshold on the number of SDs away from the mean used to define outliers (sd_thresh). Write your function so that it runs as follows: remove_outliers(diamonds, what_var = carat, sd_thresh = 3).

Code
remove_outliers <- function(data, what_var, sd_thresh) {
  data |>
    mutate(
      z_score = ({{ what_var }} - mean({{ what_var }}, na.rm = TRUE)) /
        sd({{ what_var }}, na.rm = TRUE)
    ) |>
    filter(abs(z_score) <= sd_thresh) |>
    select(-z_score)
}
remove_outliers(diamonds, what_var = carat, sd_thresh = 3)

# A tibble: 53,501 × 10
   carat cut       color clarity depth table price     x     y     z
   <dbl> <ord>     <ord> <ord>   <dbl> <dbl> <int> <dbl> <dbl> <dbl>
 1  0.23 Ideal     E     SI2      61.5    55   326  3.95  3.98  2.43
 2  0.21 Premium   E     SI1      59.8    61   326  3.89  3.84  2.31
 3  0.23 Good      E     VS1      56.9    65   327  4.05  4.07  2.31
 4  0.29 Premium   I     VS2      62.4    58   334  4.2   4.23  2.63
 5  0.31 Good      J     SI2      63.3    58   335  4.34  4.35  2.75
 6  0.24 Very Good J     VVS2     62.8    57   336  3.94  3.96  2.48
 7  0.24 Very Good I     VVS1     62.3    57   336  3.95  3.98  2.47
 8  0.26 Very Good H     SI1      61.9    55   337  4.07  4.11  2.53
 9  0.22 Fair      E     VS2      65.1    61   337  3.87  3.78  2.49
10  0.23 Very Good H     VS1      59.4    61   338  4     4.05  2.39
# ℹ 53,491 more rows
…
